<!-- Generator: Adobe Illustrator 21.1.0, SVG Export Plug-In  -->
<svg version="1.1"
	 xmlns="http://www.w3.org/2000/svg" xmlns:xlink="http://www.w3.org/1999/xlink" xmlns:a="http://ns.adobe.com/AdobeSVGViewerExtensions/3.0/"
	 x="0px" y="0px" width="10.58px" height="10.577px" viewBox="0 0 10.58 10.577" style="enable-background:new 0 0 10.58 10.577;"
	 xml:space="preserve">
<style type="text/css">
	.st0{fill:none;stroke:#000000;stroke-width:0.25;stroke-miterlimit:10;}
</style>
<defs>
</defs>
<g>
	<circle class="st0" cx="5.289" cy="5.289" r="5.164"/>
	<path d="M3.625,3.746H4.35V3.378c0-0.417,0.045-0.726,0.131-0.928c0.089-0.207,0.251-0.366,0.489-0.497
		C5.203,1.823,5.503,1.76,5.867,1.76c0.37,0,0.731,0.054,1.088,0.165L6.78,2.833C6.571,2.785,6.371,2.759,6.181,2.759
		S5.857,2.804,5.777,2.895C5.691,2.98,5.653,3.151,5.653,3.4v0.346h0.975v1.027H5.653v3.895H4.35V4.773H3.625V3.746z"/>
</g>
</svg>