<!-- Generator: Adobe Illustrator 21.1.0, SVG Export Plug-In  -->
<svg version="1.1"
	 xmlns="http://www.w3.org/2000/svg" xmlns:xlink="http://www.w3.org/1999/xlink" xmlns:a="http://ns.adobe.com/AdobeSVGViewerExtensions/3.0/"
	 x="0px" y="0px" width="345.308px" height="260.529px" viewBox="0 0 345.308 260.529"
	 style="enable-background:new 0 0 345.308 260.529;" xml:space="preserve">
<style type="text/css">
	.st0{fill:#31708F;}
</style>
<defs>
</defs>
<g>
	<path class="st0" d="M83.976,70.925c1.273-3.122,2.627-5.858,4.101-8.234c0.377-11.941,9.324-21.498,20.309-21.498h128.715
		c11.22,0,20.322,9.973,20.322,22.28v0.673c0.379,0.703,0.732,1.425,1.057,2.171c1.752,4.037,3.855,5.026,7.883,4.999
		c24.38-0.156,48.766-0.068,73.149-0.101c1.817-0.001,3.632-0.31,5.556-0.487c0.342-22.354-7.238-39.843-26.493-51.904
		c-20.81-13.036-43.92-17.85-67.653-18.21C196.982-0.213,143.004-0.19,89.063,0.592c-23.4,0.339-45.667,6.821-65.843,19.511
		C4.325,31.991-0.847,49.749,0.237,70.925C28.448,70.925,56.272,70.925,83.976,70.925z"/>
	<path class="st0" d="M344.315,75.794c-27.525,0-55.1,0-83.137,0c-2.07,19.119-0.731,20.63,17.651,20.631
		c16.538,0.003,33.071,0.014,49.601-0.002C343.101,96.408,347.533,90.721,344.315,75.794z"/>
	<path class="st0" d="M83.775,75.92c-27.755,0-55.519,0-83.24,0c-1.972,16.97,1.027,20.497,17.099,20.505
		c16.064,0.007,32.128,0.022,48.192-0.005C80.01,96.393,84.767,91.001,83.775,75.92z"/>
	<path class="st0" d="M242.386,77.098l2.92-32.595h-19.922l-6.807,32.587h-34.225h-23.399h-34.222l-6.808-32.587h-19.922
		l2.921,32.595l-19.648,24.325l-34.628,98.273v54.28h8.419v2.809c0,2.067,1.68,3.744,3.744,3.744h20.593
		c2.065,0,3.744-1.677,3.744-3.744v-2.809h175.013v2.809c0,2.067,1.679,3.744,3.75,3.744h20.588c2.064,0,3.743-1.677,3.743-3.744
		v-2.809h8.422v-54.28l-34.628-98.273L242.386,77.098z M172.655,219.346c-31.272,0-56.625-25.349-56.625-56.619
		c0-31.274,25.353-56.626,56.625-56.626c31.272,0,56.622,25.352,56.622,56.626C229.277,193.997,203.927,219.346,172.655,219.346z"/>
	<circle class="st0" cx="172.656" cy="115.987" r="7.849"/>
	<circle class="st0" cx="172.656" cy="209.512" r="7.849"/>
	<circle class="st0" cx="219.417" cy="162.748" r="7.849"/>
	<path class="st0" d="M133.742,162.748c0-4.333-3.514-7.849-7.853-7.849c-4.332,0-7.848,3.516-7.848,7.849
		c0,4.337,3.516,7.849,7.848,7.849C130.228,170.598,133.742,167.085,133.742,162.748z"/>
	
		<ellipse transform="matrix(0.707 -0.7072 0.7072 0.707 -31.4388 183.4761)" class="st0" cx="205.721" cy="129.682" rx="7.849" ry="7.849"/>
	
		<ellipse transform="matrix(0.7071 -0.7071 0.7071 0.7071 -97.5788 156.0568)" class="st0" cx="139.589" cy="195.817" rx="7.848" ry="7.847"/>
	
		<ellipse transform="matrix(0.707 -0.7072 0.7072 0.707 -78.2083 202.8517)" class="st0" cx="205.721" cy="195.817" rx="7.849" ry="7.849"/>
	
		<ellipse transform="matrix(0.707 -0.7072 0.7072 0.707 -50.814 136.7089)" class="st0" cx="139.589" cy="129.683" rx="7.848" ry="7.847"/>
	
		<ellipse transform="matrix(0.9189 -0.3946 0.3946 0.9189 -39.4413 96.786)" class="st0" cx="215.626" cy="144.299" rx="7.85" ry="7.847"/>
	
		<ellipse transform="matrix(0.9189 -0.3945 0.3945 0.9189 -60.9612 65.8496)" class="st0" cx="129.684" cy="181.2" rx="7.849" ry="7.849"/>
	
		<ellipse transform="matrix(0.9189 -0.3945 0.3945 0.9189 -65.6602 92.0827)" class="st0" cx="191.105" cy="205.72" rx="7.848" ry="7.849"/>
	
		<ellipse transform="matrix(0.9189 -0.3945 0.3945 0.9189 -34.7477 70.5537)" class="st0" cx="154.205" cy="119.779" rx="7.85" ry="7.849"/>
	
		<ellipse transform="matrix(0.3816 -0.9243 0.9243 0.3816 -53.9076 209.2419)" class="st0" cx="129.427" cy="144.91" rx="7.848" ry="7.848"/>
	
		<ellipse transform="matrix(0.3814 -0.9244 0.9244 0.3814 -33.3913 311.2839)" class="st0" cx="215.881" cy="180.59" rx="7.849" ry="7.85"/>
	
		<ellipse transform="matrix(0.3817 -0.9243 0.9243 0.3817 7.3155 249.9815)" class="st0" cx="190.496" cy="119.523" rx="7.85" ry="7.848"/>
	
		<ellipse transform="matrix(0.3817 -0.9243 0.9243 0.3817 -94.6613 270.445)" class="st0" cx="154.814" cy="205.977" rx="7.849" ry="7.848"/>
	<circle class="st0" cx="172.979" cy="162.705" r="28.663"/>
</g>
</svg>