<!-- Generator: Adobe Illustrator 21.1.0, SVG Export Plug-In  -->
<svg version="1.1"
	 xmlns="http://www.w3.org/2000/svg" xmlns:xlink="http://www.w3.org/1999/xlink" xmlns:a="http://ns.adobe.com/AdobeSVGViewerExtensions/3.0/"
	 x="0px" y="0px" width="3.555px" height="3.555px" viewBox="0 0 3.555 3.555" style="enable-background:new 0 0 3.555 3.555;"
	 xml:space="preserve">
<style type="text/css">
	.st0{fill:#0E0E0E;}
	.st1{fill:#FFFFFF;}
</style>
<defs>
</defs>
<g>
	<g>
		<circle class="st0" cx="1.777" cy="1.778" r="1.777"/>
	</g>
	<g>
		<polygon class="st1" points="2.054,2.923 2.054,1.774 2.542,1.774 1.778,0.632 1.013,1.774 1.501,1.774 1.501,2.923 		"/>
	</g>
</g>
</svg>